<?xml version="1.0" encoding="UTF-8"?>
<!DOCTYPE svg PUBLIC "-//W3C//DTD SVG 1.1//EN" "http://www.w3.org/Graphics/SVG/1.1/DTD/svg11.dtd">
<!-- Creator: CorelDRAW X8 -->
<svg xmlns="http://www.w3.org/2000/svg" xml:space="preserve" width="179px" height="64px" version="1.1" style="shape-rendering:geometricPrecision; text-rendering:geometricPrecision; image-rendering:optimizeQuality; fill-rule:evenodd; clip-rule:evenodd"
viewBox="0 0 141 50"
 xmlns:xlink="http://www.w3.org/1999/xlink">
 <defs>
  <style type="text/css">
   <![CDATA[
    .str1 {stroke:#FEFEFE;stroke-width:0.0756834}
    .str0 {stroke:#FEFEFE;stroke-width:0.198644;stroke-linecap:square}
    .fil1 {fill:none}
    .fil2 {fill:#FEFEFE;fill-rule:nonzero}
    .fil0 {fill:#FEFEFE;fill-rule:nonzero}
   ]]>
  </style>
 </defs>
 <g id="Слой_x0020_1">
  <metadata id="CorelCorpID_0Corel-Layer"/>
  <g id="_2208658666848">
   <path class="fil0" d="M63 14l-2 7 0 0 -1 -2 -1 -5 -4 0 0 1 5 12 1 0 2 -6 0 0 2 6 2 0 4 -12 0 -1 -3 0 -1 5 -1 2 0 0 -2 -7c-1,0 -1,0 -1,0z"/>
   <path id="1" class="fil0" d="M80 14c-3,0 -4,0 -7,0 0,4 0,8 0,13 3,0 5,0 7,0 0,-1 0,-2 0,-3 -1,0 -2,0 -4,0 0,-1 0,-2 0,-2l4 0c0,-1 0,-2 0,-3l-4 0 0 -2c2,0 3,0 4,0 0,-1 0,-2 0,-3z"/>
   <path id="2" class="fil0" d="M90 14c-2,0 -4,0 -7,0 0,4 0,8 0,13 3,0 5,0 8,0 0,-1 0,-2 0,-3 -2,0 -3,0 -5,0 0,-1 0,-2 0,-2l4 0c0,-1 0,-2 0,-3l-4 0 0 -2c2,0 3,0 4,0 0,-1 0,-2 0,-3z"/>
   <path id="3" class="fil0" d="M96 27l0 -5c1,0 1,0 2,0l2 5 4 0 0 -1 -4 -5c3,-2 3,-4 3,-7 -1,0 -2,0 -4,0 0,2 1,5 -2,5l-1 0 0 -5c-1,0 -2,0 -3,0l0 13c1,0 2,0 3,0z"/>
   <path id="4" class="fil0" d="M113 14c-3,0 -5,0 -8,0 0,4 0,8 0,13 3,0 5,0 8,0 0,-1 0,-2 0,-3 -2,0 -3,0 -5,0 0,-1 0,-2 0,-2l4 0c0,-1 0,-2 0,-3l-4 0 0 -2c2,0 3,0 5,0 0,-1 0,-2 0,-3z"/>
   <path id="5" class="fil0" d="M125 27l1 0 0 -13c-1,0 -2,0 -3,0l0 6 -6 -6 -1 0 0 13c1,0 2,0 3,0l0 -7 6 7z"/>
   <path id="6" class="fil0" d="M133 14l-4 0 0 13 4 0c8,0 8,-13 0,-13zm-1 3l1 0c4,0 4,7 0,7l-1 0 0 -7z"/>
   <line class="fil1 str0" x1="38" y1="6" x2="38" y2= "6" />
   <line class="fil1 str0" x1="38" y1="7" x2="38" y2= "7" />
   <path class="fil2 str1" d="M20 45l6 -12c2,1 4,2 7,3l-6 12c-1,2 -3,3 -5,2 -2,-1 -3,-3 -2,-5z"/>
   <path class="fil2 str1" d="M41 29c6,-2 9,-9 6,-15 -2,-6 -9,-9 -15,-7 -6,3 -9,9 -7,15 3,6 10,9 16,7zm-19 -5c-4,-8 0,-17 8,-20 9,-3 18,1 21,8 3,8 -1,17 -9,20 -8,4 -17,0 -20,-8z"/>
   <polygon class="fil0" points="17,17 27,1 27,0 19,0 13,10 13,10 8,0 0,0 0,1 10,17 10,29 17,29 "/>
  </g>
 </g>
</svg>
